dump.vcd
$date
Sun Dec 17 04:28:35 2023
$end
$version
Riviera-PRO Version 2022.04.117.8517
$end
$timescale
1 ns
$end

$scope module tb_RAM $end
$var wire 8 ! tb_data_out [7:0] $end
$var reg 8 " tb_data_in [7:0] $end
$var reg 5 # tb_address [4:0] $end
$var reg 1 $ tb_clk $end
$var reg 1 % tb_reset $end
$var reg 1 & tb_write_enable $end
$var reg 1 ' tb_read_enable $end
$var reg 8 ( data_out [7:0] $end
$var integer 32 ) i $end
$var integer 32 * flag $end

$scope module R1 $end
$var wire 1 + clk $end
$var wire 1 , reset $end
$var wire 5 - address [4:0] $end
$var wire 8 . data_in [7:0] $end
$var wire 1 / write_enable $end
$var wire 1 0 read_enable $end
$var reg 8 1 data_out [7:0] $end
$var integer 32 2 i $end
$var parameter 32 3 addr_size [31:0] $end
$var parameter 32 4 data_size [31:0] $end
$var parameter 32 5 mem_size [31:0] $end
$upscope $end


$scope task reset $end
$upscope $end


$scope task write $end
$var reg 8 6 tb_mem [7:0] $end
$var reg 8 7 tb_data_in [7:0] $end
$var reg 5 8 tb_address [4:0] $end
$upscope $end


$scope task read $end
$var reg 8 9 data_out [7:0] $end
$var reg 8 : tb_mem [7:0] $end
$upscope $end


$scope task check $end
$var reg 1 ; flag $end
$var reg 8 < data_out [7:0] $end
$var reg 8 = tb_data_out [7:0] $end
$upscope $end


$scope task result $end
$var reg 1 > flag $end
$upscope $end


$scope task testcase1 $end
$upscope $end


$scope task testcase2 $end
$upscope $end


$scope task testcase3 $end
$upscope $end


$scope task testcase4 $end
$upscope $end


$scope task testcase5 $end
$upscope $end

$upscope $end

$enddefinitions $end
$dumpvars
bx !
bx "
bx #
0$
1%
x&
x'
bx (
bx )
bx *
0+
1,
bx -
bx .
x/
x0
bx 1
bx 2
b100 3
b111 4
b11111 5
bx 6
bx 7
bx 8
bx 9
bx :
x;
bx <
bx =
x>
$end
#10
1$
1+
b11111 2
bz 1
bz !
#20
0$
0+
#30
1$
1+
#40
0%
1&
b1 *
b0 )
b0 #
b0 8
b100100 7
b100100 6
b100100 "
0$
0+
b100100 .
b0 -
1/
0,
#50
1$
1+
#60
b1 )
b1 #
b1 8
b10000001 7
b10000001 6
b10000001 "
0$
0+
b10000001 .
b1 -
#70
1$
1+
#80
b10 )
b10 #
b10 8
b1001 7
b1001 6
b1001 "
0$
0+
b1001 .
b10 -
#90
1$
1+
#100
b11 )
b11 #
b11 8
b1100011 7
b1100011 6
b1100011 "
0$
0+
b1100011 .
b11 -
#110
1$
1+
#120
b100 )
b100 #
b100 8
b1101 7
b1101 6
b1101 "
0$
0+
b1101 .
b100 -
#130
1$
1+
#140
b101 )
b101 #
b101 8
b10001101 7
b10001101 6
b10001101 "
0$
0+
b10001101 .
b101 -
#150
1$
1+
#160
b110 )
b110 #
b110 8
b1100101 7
b1100101 6
b1100101 "
0$
0+
b1100101 .
b110 -
#170
1$
1+
#180
b111 )
b111 #
b111 8
b10010 7
b10010 6
b10010 "
0$
0+
b10010 .
b111 -
#190
1$
1+
#200
b1000 )
b1000 #
b1000 8
b1 7
b1 6
b1 "
0$
0+
b1 .
b1000 -
#210
1$
1+
#220
b1001 )
b1001 #
b1001 8
b1101 7
b1101 6
b1101 "
0$
0+
b1101 .
b1001 -
#230
1$
1+
#240
b1010 )
b1010 #
b1010 8
b1110110 7
b1110110 6
b1110110 "
0$
0+
b1110110 .
b1010 -
#250
1$
1+
#260
b1011 )
b1011 #
b1011 8
b111101 7
b111101 6
b111101 "
0$
0+
b111101 .
b1011 -
#270
1$
1+
#280
b1100 )
b1100 #
b1100 8
b11101101 7
b11101101 6
b11101101 "
0$
0+
b11101101 .
b1100 -
#290
1$
1+
#300
b1101 )
b1101 #
b1101 8
b10001100 7
b10001100 6
b10001100 "
0$
0+
b10001100 .
b1101 -
#310
1$
1+
#320
b1110 )
b1110 #
b1110 8
b11111001 7
b11111001 6
b11111001 "
0$
0+
b11111001 .
b1110 -
#330
1$
1+
#340
b1111 )
b1111 #
b1111 8
b11000110 7
b11000110 6
b11000110 "
0$
0+
b11000110 .
b1111 -
#350
1$
1+
#360
b10000 )
b10000 #
b10000 8
b11000101 7
b11000101 6
b11000101 "
0$
0+
b11000101 .
b10000 -
#370
1$
1+
#380
b10001 )
b10001 #
b10001 8
b10101010 7
b10101010 6
b10101010 "
0$
0+
b10101010 .
b10001 -
#390
1$
1+
#400
b10010 )
b10010 #
b10010 8
b11100101 7
b11100101 6
b11100101 "
0$
0+
b11100101 .
b10010 -
#410
1$
1+
#420
b10011 )
b10011 #
b10011 8
b1110111 7
b1110111 6
b1110111 "
0$
0+
b1110111 .
b10011 -
#430
1$
1+
#440
b10100 )
b10100 #
b10100 8
b10010 7
b10010 6
b10010 "
0$
0+
b10010 .
b10100 -
#450
1$
1+
#460
b10101 )
b10101 #
b10101 8
b10001111 7
b10001111 6
b10001111 "
0$
0+
b10001111 .
b10101 -
#470
1$
1+
#480
b10110 )
b10110 #
b10110 8
b11110010 7
b11110010 6
b11110010 "
0$
0+
b11110010 .
b10110 -
#490
1$
1+
#500
b10111 )
b10111 #
b10111 8
b11001110 7
b11001110 6
b11001110 "
0$
0+
b11001110 .
b10111 -
#510
1$
1+
#520
b11000 )
b11000 #
b11000 8
b11101000 7
b11101000 6
b11101000 "
0$
0+
b11101000 .
b11000 -
#530
1$
1+
#540
b11001 )
b11001 #
b11001 8
b11000101 7
b11000101 6
b11000101 "
0$
0+
b11000101 .
b11001 -
#550
1$
1+
#560
b11010 )
b11010 #
b11010 8
b1011100 7
b1011100 6
b1011100 "
0$
0+
b1011100 .
b11010 -
#570
1$
1+
#580
b11011 )
b11011 #
b11011 8
b10111101 7
b10111101 6
b10111101 "
0$
0+
b10111101 .
b11011 -
#590
1$
1+
#600
b11100 )
b11100 #
b11100 8
b101101 7
b101101 6
b101101 "
0$
0+
b101101 .
b11100 -
#610
1$
1+
#620
b11101 )
b11101 #
b11101 8
b1100101 7
b1100101 6
b1100101 "
0$
0+
b1100101 .
b11101 -
#630
1$
1+
#640
b11110 )
b11110 #
b11110 8
b1100011 7
b1100011 6
b1100011 "
0$
0+
b1100011 .
b11110 -
#650
1$
1+
#660
b11111 )
b11111 #
b11111 8
b1010 7
b1010 6
b1010 "
0$
0+
b1010 .
b11111 -
#670
1$
1+
#680
b0 )
1'
0&
b0 #
b100100 :
b100100 9
b100100 (
0$
0+
b0 -
0/
10
#690
1$
1+
b100100 1
b100100 !
#700
1;
b100100 <
b100100 =
0$
0+
#710
1$
1+
#720
b1 )
b1 #
b10000001 :
b10000001 9
b10000001 (
0$
0+
b1 -
#730
1$
1+
b10000001 1
b10000001 !
#740
b10000001 <
b10000001 =
0$
0+
#750
1$
1+
#760
b10 )
b10 #
b1001 :
b1001 9
b1001 (
0$
0+
b10 -
#770
1$
1+
b1001 1
b1001 !
#780
b1001 <
b1001 =
0$
0+
#790
1$
1+
#800
b11 )
b11 #
b1100011 :
b1100011 9
b1100011 (
0$
0+
b11 -
#810
1$
1+
b1100011 1
b1100011 !
#820
b1100011 <
b1100011 =
0$
0+
#830
1$
1+
#840
b100 )
b100 #
b1101 :
b1101 9
b1101 (
0$
0+
b100 -
#850
1$
1+
b1101 1
b1101 !
#860
b1101 <
b1101 =
0$
0+
#870
1$
1+
#880
b101 )
b101 #
b10001101 :
b10001101 9
b10001101 (
0$
0+
b101 -
#890
1$
1+
b10001101 1
b10001101 !
#900
b10001101 <
b10001101 =
0$
0+
#910
1$
1+
#920
b110 )
b110 #
b1100101 :
b1100101 9
b1100101 (
0$
0+
b110 -
#930
1$
1+
b1100101 1
b1100101 !
#940
b1100101 <
b1100101 =
0$
0+
#950
1$
1+
#960
b111 )
b111 #
b10010 :
b10010 9
b10010 (
0$
0+
b111 -
#970
1$
1+
b10010 1
b10010 !
#980
b10010 <
b10010 =
0$
0+
#990
1$
1+
#1000
b1000 )
b1000 #
b1 :
b1 9
b1 (
0$
0+
b1000 -
#1010
1$
1+
b1 1
b1 !
#1020
b1 <
b1 =
0$
0+
#1030
1$
1+
#1040
b1001 )
b1001 #
b1101 :
b1101 9
b1101 (
0$
0+
b1001 -
#1050
1$
1+
b1101 1
b1101 !
#1060
b1101 <
b1101 =
0$
0+
#1070
1$
1+
#1080
b1010 )
b1010 #
b1110110 :
b1110110 9
b1110110 (
0$
0+
b1010 -
#1090
1$
1+
b1110110 1
b1110110 !
#1100
b1110110 <
b1110110 =
0$
0+
#1110
1$
1+
#1120
b1011 )
b1011 #
b111101 :
b111101 9
b111101 (
0$
0+
b1011 -
#1130
1$
1+
b111101 1
b111101 !
#1140
b111101 <
b111101 =
0$
0+
#1150
1$
1+
#1160
b1100 )
b1100 #
b11101101 :
b11101101 9
b11101101 (
0$
0+
b1100 -
#1170
1$
1+
b11101101 1
b11101101 !
#1180
b11101101 <
b11101101 =
0$
0+
#1190
1$
1+
#1200
b1101 )
b1101 #
b10001100 :
b10001100 9
b10001100 (
0$
0+
b1101 -
#1210
1$
1+
b10001100 1
b10001100 !
#1220
b10001100 <
b10001100 =
0$
0+
#1230
1$
1+
#1240
b1110 )
b1110 #
b11111001 :
b11111001 9
b11111001 (
0$
0+
b1110 -
#1250
1$
1+
b11111001 1
b11111001 !
#1260
b11111001 <
b11111001 =
0$
0+
#1270
1$
1+
#1280
b1111 )
b1111 #
b11000110 :
b11000110 9
b11000110 (
0$
0+
b1111 -
#1290
1$
1+
b11000110 1
b11000110 !
#1300
b11000110 <
b11000110 =
0$
0+
#1310
1$
1+
#1320
b10000 )
b10000 #
b11000101 :
b11000101 9
b11000101 (
0$
0+
b10000 -
#1330
1$
1+
b11000101 1
b11000101 !
#1340
b11000101 <
b11000101 =
0$
0+
#1350
1$
1+
#1360
b10001 )
b10001 #
b10101010 :
b10101010 9
b10101010 (
0$
0+
b10001 -
#1370
1$
1+
b10101010 1
b10101010 !
#1380
b10101010 <
b10101010 =
0$
0+
#1390
1$
1+
#1400
b10010 )
b10010 #
b11100101 :
b11100101 9
b11100101 (
0$
0+
b10010 -
#1410
1$
1+
b11100101 1
b11100101 !
#1420
b11100101 <
b11100101 =
0$
0+
#1430
1$
1+
#1440
b10011 )
b10011 #
b1110111 :
b1110111 9
b1110111 (
0$
0+
b10011 -
#1450
1$
1+
b1110111 1
b1110111 !
#1460
b1110111 <
b1110111 =
0$
0+
#1470
1$
1+
#1480
b10100 )
b10100 #
b10010 :
b10010 9
b10010 (
0$
0+
b10100 -
#1490
1$
1+
b10010 1
b10010 !
#1500
b10010 <
b10010 =
0$
0+
#1510
1$
1+
#1520
b10101 )
b10101 #
b10001111 :
b10001111 9
b10001111 (
0$
0+
b10101 -
#1530
1$
1+
b10001111 1
b10001111 !
#1540
b10001111 <
b10001111 =
0$
0+
#1550
1$
1+
#1560
b10110 )
b10110 #
b11110010 :
b11110010 9
b11110010 (
0$
0+
b10110 -
#1570
1$
1+
b11110010 1
b11110010 !
#1580
b11110010 <
b11110010 =
0$
0+
#1590
1$
1+
#1600
b10111 )
b10111 #
b11001110 :
b11001110 9
b11001110 (
0$
0+
b10111 -
#1610
1$
1+
b11001110 1
b11001110 !
#1620
b11001110 <
b11001110 =
0$
0+
#1630
1$
1+
#1640
b11000 )
b11000 #
b11101000 :
b11101000 9
b11101000 (
0$
0+
b11000 -
#1650
1$
1+
b11101000 1
b11101000 !
#1660
b11101000 <
b11101000 =
0$
0+
#1670
1$
1+
#1680
b11001 )
b11001 #
b11000101 :
b11000101 9
b11000101 (
0$
0+
b11001 -
#1690
1$
1+
b11000101 1
b11000101 !
#1700
b11000101 <
b11000101 =
0$
0+
#1710
1$
1+
#1720
b11010 )
b11010 #
b1011100 :
b1011100 9
b1011100 (
0$
0+
b11010 -
#1730
1$
1+
b1011100 1
b1011100 !
#1740
b1011100 <
b1011100 =
0$
0+
#1750
1$
1+
#1760
b11011 )
b11011 #
b10111101 :
b10111101 9
b10111101 (
0$
0+
b11011 -
#1770
1$
1+
b10111101 1
b10111101 !
#1780
b10111101 <
b10111101 =
0$
0+
#1790
1$
1+
#1800
b11100 )
b11100 #
b101101 :
b101101 9
b101101 (
0$
0+
b11100 -
#1810
1$
1+
b101101 1
b101101 !
#1820
b101101 <
b101101 =
0$
0+
#1830
1$
1+
#1840
b11101 )
b11101 #
b1100101 :
b1100101 9
b1100101 (
0$
0+
b11101 -
#1850
1$
1+
b1100101 1
b1100101 !
#1860
b1100101 <
b1100101 =
0$
0+
#1870
1$
1+
#1880
b11110 )
b11110 #
b1100011 :
b1100011 9
b1100011 (
0$
0+
b11110 -
#1890
1$
1+
b1100011 1
b1100011 !
#1900
b1100011 <
b1100011 =
0$
0+
#1910
1$
1+
#1920
b11111 )
b11111 #
b1010 :
b1010 9
b1010 (
0$
0+
b11111 -
#1930
1$
1+
b1010 1
b1010 !
#1940
b1010 <
b1010 =
0$
0+
#1950
1$
1+
#1960
b100000 )
1>
1%
0$
0+
1,
#1970
1$
1+
b11111 2
bz 1
bz !
#1980
0$
0+
#1990
1$
1+
#2000
0%
0'
b0 )
1&
b0 #
b0 8
b10000000 7
b10000000 6
b10000000 "
0$
0+
b10000000 .
b0 -
1/
00
0,
#2010
1$
1+
#2020
0&
1'
b10000000 :
b10000000 9
b10000000 (
0$
0+
10
0/
#2030
1$
1+
b10000000 1
b10000000 !
#2040
b10000000 <
b10000000 =
0$
0+
#2050
1$
1+
#2060
b1 )
1&
0'
b1 #
b1 8
b100000 7
b100000 6
b100000 "
0$
0+
b100000 .
b1 -
00
1/
#2070
1$
1+
bz 1
bz !
#2080
0&
1'
b100000 :
b100000 9
b100000 (
0$
0+
10
0/
#2090
1$
1+
b100000 1
b100000 !
#2100
b100000 <
b100000 =
0$
0+
#2110
1$
1+
#2120
b10 )
1&
0'
b10 #
b10 8
b10101010 7
b10101010 6
b10101010 "
0$
0+
b10101010 .
b10 -
00
1/
#2130
1$
1+
bz 1
bz !
#2140
0&
1'
b10101010 :
b10101010 9
b10101010 (
0$
0+
10
0/
#2150
1$
1+
b10101010 1
b10101010 !
#2160
b10101010 <
b10101010 =
0$
0+
#2170
1$
1+
#2180
b11 )
1&
0'
b11 #
b11 8
b10011101 7
b10011101 6
b10011101 "
0$
0+
b10011101 .
b11 -
00
1/
#2190
1$
1+
bz 1
bz !
#2200
0&
1'
b10011101 :
b10011101 9
b10011101 (
0$
0+
10
0/
#2210
1$
1+
b10011101 1
b10011101 !
#2220
b10011101 <
b10011101 =
0$
0+
#2230
1$
1+
#2240
b100 )
1&
0'
b100 #
b100 8
b10010110 7
b10010110 6
b10010110 "
0$
0+
b10010110 .
b100 -
00
1/
#2250
1$
1+
bz 1
bz !
#2260
0&
1'
b10010110 :
b10010110 9
b10010110 (
0$
0+
10
0/
#2270
1$
1+
b10010110 1
b10010110 !
#2280
b10010110 <
b10010110 =
0$
0+
#2290
1$
1+
#2300
b101 )
1&
0'
b101 #
b101 8
b10011 7
b10011 6
b10011 "
0$
0+
b10011 .
b101 -
00
1/
#2310
1$
1+
bz 1
bz !
#2320
0&
1'
b10011 :
b10011 9
b10011 (
0$
0+
10
0/
#2330
1$
1+
b10011 1
b10011 !
#2340
b10011 <
b10011 =
0$
0+
#2350
1$
1+
#2360
b110 )
1&
0'
b110 #
b110 8
b1101 7
b1101 6
b1101 "
0$
0+
b1101 .
b110 -
00
1/
#2370
1$
1+
bz 1
bz !
#2380
0&
1'
b1101 :
b1101 9
b1101 (
0$
0+
10
0/
#2390
1$
1+
b1101 1
b1101 !
#2400
b1101 <
b1101 =
0$
0+
#2410
1$
1+
#2420
b111 )
1&
0'
b111 #
b111 8
b1010011 7
b1010011 6
b1010011 "
0$
0+
b1010011 .
b111 -
00
1/
#2430
1$
1+
bz 1
bz !
#2440
0&
1'
b1010011 :
b1010011 9
b1010011 (
0$
0+
10
0/
#2450
1$
1+
b1010011 1
b1010011 !
#2460
b1010011 <
b1010011 =
0$
0+
#2470
1$
1+
#2480
b1000 )
1&
0'
b1000 #
b1000 8
b1101011 7
b1101011 6
b1101011 "
0$
0+
b1101011 .
b1000 -
00
1/
#2490
1$
1+
bz 1
bz !
#2500
0&
1'
b1101011 :
b1101011 9
b1101011 (
0$
0+
10
0/
#2510
1$
1+
b1101011 1
b1101011 !
#2520
b1101011 <
b1101011 =
0$
0+
#2530
1$
1+
#2540
b1001 )
1&
0'
b1001 #
b1001 8
b11010101 7
b11010101 6
b11010101 "
0$
0+
b11010101 .
b1001 -
00
1/
#2550
1$
1+
bz 1
bz !
#2560
0&
1'
b11010101 :
b11010101 9
b11010101 (
0$
0+
10
0/
#2570
1$
1+
b11010101 1
b11010101 !
#2580
b11010101 <
b11010101 =
0$
0+
#2590
1$
1+
#2600
b1010 )
1&
0'
b1010 #
b1010 8
b10 7
b10 6
b10 "
0$
0+
b10 .
b1010 -
00
1/
#2610
1$
1+
bz 1
bz !
#2620
0&
1'
b10 :
b10 9
b10 (
0$
0+
10
0/
#2630
1$
1+
b10 1
b10 !
#2640
b10 <
b10 =
0$
0+
#2650
1$
1+
#2660
b1011 )
1&
0'
b1011 #
b1011 8
b10101110 7
b10101110 6
b10101110 "
0$
0+
b10101110 .
b1011 -
00
1/
#2670
1$
1+
bz 1
bz !
#2680
0&
1'
b10101110 :
b10101110 9
b10101110 (
0$
0+
10
0/
#2690
1$
1+
b10101110 1
b10101110 !
#2700
b10101110 <
b10101110 =
0$
0+
#2710
1$
1+
#2720
b1100 )
1&
0'
b1100 #
b1100 8
b11101 7
b11101 6
b11101 "
0$
0+
b11101 .
b1100 -
00
1/
#2730
1$
1+
bz 1
bz !
#2740
0&
1'
b11101 :
b11101 9
b11101 (
0$
0+
10
0/
#2750
1$
1+
b11101 1
b11101 !
#2760
b11101 <
b11101 =
0$
0+
#2770
1$
1+
#2780
b1101 )
1&
0'
b1101 #
b1101 8
b11001111 7
b11001111 6
b11001111 "
0$
0+
b11001111 .
b1101 -
00
1/
#2790
1$
1+
bz 1
bz !
#2800
0&
1'
b11001111 :
b11001111 9
b11001111 (
0$
0+
10
0/
#2810
1$
1+
b11001111 1
b11001111 !
#2820
b11001111 <
b11001111 =
0$
0+
#2830
1$
1+
#2840
b1110 )
1&
0'
b1110 #
b1110 8
b100011 7
b100011 6
b100011 "
0$
0+
b100011 .
b1110 -
00
1/
#2850
1$
1+
bz 1
bz !
#2860
0&
1'
b100011 :
b100011 9
b100011 (
0$
0+
10
0/
#2870
1$
1+
b100011 1
b100011 !
#2880
b100011 <
b100011 =
0$
0+
#2890
1$
1+
#2900
b1111 )
1&
0'
b1111 #
b1111 8
b1010 7
b1010 6
b1010 "
0$
0+
b1010 .
b1111 -
00
1/
#2910
1$
1+
bz 1
bz !
#2920
0&
1'
b1010 :
b1010 9
b1010 (
0$
0+
10
0/
#2930
1$
1+
b1010 1
b1010 !
#2940
b1010 <
b1010 =
0$
0+
#2950
1$
1+
#2960
b10000 )
1&
0'
b10000 #
b10000 8
b11001010 7
b11001010 6
b11001010 "
0$
0+
b11001010 .
b10000 -
00
1/
#2970
1$
1+
bz 1
bz !
#2980
0&
1'
b11001010 :
b11001010 9
b11001010 (
0$
0+
10
0/
#2990
1$
1+
b11001010 1
b11001010 !
#3000
b11001010 <
b11001010 =
0$
0+
#3010
1$
1+
#3020
b10001 )
1&
0'
b10001 #
b10001 8
b111100 7
b111100 6
b111100 "
0$
0+
b111100 .
b10001 -
00
1/
#3030
1$
1+
bz 1
bz !
#3040
0&
1'
b111100 :
b111100 9
b111100 (
0$
0+
10
0/
#3050
1$
1+
b111100 1
b111100 !
#3060
b111100 <
b111100 =
0$
0+
#3070
1$
1+
#3080
b10010 )
1&
0'
b10010 #
b10010 8
b11110010 7
b11110010 6
b11110010 "
0$
0+
b11110010 .
b10010 -
00
1/
#3090
1$
1+
bz 1
bz !
#3100
0&
1'
b11110010 :
b11110010 9
b11110010 (
0$
0+
10
0/
#3110
1$
1+
b11110010 1
b11110010 !
#3120
b11110010 <
b11110010 =
0$
0+
#3130
1$
1+
#3140
b10011 )
1&
0'
b10011 #
b10011 8
b10001010 7
b10001010 6
b10001010 "
0$
0+
b10001010 .
b10011 -
00
1/
#3150
1$
1+
bz 1
bz !
#3160
0&
1'
b10001010 :
b10001010 9
b10001010 (
0$
0+
10
0/
#3170
1$
1+
b10001010 1
b10001010 !
#3180
b10001010 <
b10001010 =
0$
0+
#3190
1$
1+
#3200
b10100 )
1&
0'
b10100 #
b10100 8
b1000001 7
b1000001 6
b1000001 "
0$
0+
b1000001 .
b10100 -
00
1/
#3210
1$
1+
bz 1
bz !
#3220
0&
1'
b1000001 :
b1000001 9
b1000001 (
0$
0+
10
0/
#3230
1$
1+
b1000001 1
b1000001 !
#3240
b1000001 <
b1000001 =
0$
0+
#3250
1$
1+
#3260
b10101 )
1&
0'
b10101 #
b10101 8
b11011000 7
b11011000 6
b11011000 "
0$
0+
b11011000 .
b10101 -
00
1/
#3270
1$
1+
bz 1
bz !
#3280
0&
1'
b11011000 :
b11011000 9
b11011000 (
0$
0+
10
0/
#3290
1$
1+
b11011000 1
b11011000 !
#3300
b11011000 <
b11011000 =
0$
0+
#3310
1$
1+
#3320
b10110 )
1&
0'
b10110 #
b10110 8
b1111000 7
b1111000 6
b1111000 "
0$
0+
b1111000 .
b10110 -
00
1/
#3330
1$
1+
bz 1
bz !
#3340
0&
1'
b1111000 :
b1111000 9
b1111000 (
0$
0+
10
0/
#3350
1$
1+
b1111000 1
b1111000 !
#3360
b1111000 <
b1111000 =
0$
0+
#3370
1$
1+
#3380
b10111 )
1&
0'
b10111 #
b10111 8
b10001001 7
b10001001 6
b10001001 "
0$
0+
b10001001 .
b10111 -
00
1/
#3390
1$
1+
bz 1
bz !
#3400
0&
1'
b10001001 :
b10001001 9
b10001001 (
0$
0+
10
0/
#3410
1$
1+
b10001001 1
b10001001 !
#3420
b10001001 <
b10001001 =
0$
0+
#3430
1$
1+
#3440
b11000 )
1&
0'
b11000 #
b11000 8
b11101011 7
b11101011 6
b11101011 "
0$
0+
b11101011 .
b11000 -
00
1/
#3450
1$
1+
bz 1
bz !
#3460
0&
1'
b11101011 :
b11101011 9
b11101011 (
0$
0+
10
0/
#3470
1$
1+
b11101011 1
b11101011 !
#3480
b11101011 <
b11101011 =
0$
0+
#3490
1$
1+
#3500
b11001 )
1&
0'
b11001 #
b11001 8
b10110110 7
b10110110 6
b10110110 "
0$
0+
b10110110 .
b11001 -
00
1/
#3510
1$
1+
bz 1
bz !
#3520
0&
1'
b10110110 :
b10110110 9
b10110110 (
0$
0+
10
0/
#3530
1$
1+
b10110110 1
b10110110 !
#3540
b10110110 <
b10110110 =
0$
0+
#3550
1$
1+
#3560
b11010 )
1&
0'
b11010 #
b11010 8
b11000110 7
b11000110 6
b11000110 "
0$
0+
b11000110 .
b11010 -
00
1/
#3570
1$
1+
bz 1
bz !
#3580
0&
1'
b11000110 :
b11000110 9
b11000110 (
0$
0+
10
0/
#3590
1$
1+
b11000110 1
b11000110 !
#3600
b11000110 <
b11000110 =
0$
0+
#3610
1$
1+
#3620
b11011 )
1&
0'
b11011 #
b11011 8
b10101110 7
b10101110 6
b10101110 "
0$
0+
b10101110 .
b11011 -
00
1/
#3630
1$
1+
bz 1
bz !
#3640
0&
1'
b10101110 :
b10101110 9
b10101110 (
0$
0+
10
0/
#3650
1$
1+
b10101110 1
b10101110 !
#3660
b10101110 <
b10101110 =
0$
0+
#3670
1$
1+
#3680
b11100 )
1&
0'
b11100 #
b11100 8
b10111100 7
b10111100 6
b10111100 "
0$
0+
b10111100 .
b11100 -
00
1/
#3690
1$
1+
bz 1
bz !
#3700
0&
1'
b10111100 :
b10111100 9
b10111100 (
0$
0+
10
0/
#3710
1$
1+
b10111100 1
b10111100 !
#3720
b10111100 <
b10111100 =
0$
0+
#3730
1$
1+
#3740
b11101 )
1&
0'
b11101 #
b11101 8
b101010 7
b101010 6
b101010 "
0$
0+
b101010 .
b11101 -
00
1/
#3750
1$
1+
bz 1
bz !
#3760
0&
1'
b101010 :
b101010 9
b101010 (
0$
0+
10
0/
#3770
1$
1+
b101010 1
b101010 !
#3780
b101010 <
b101010 =
0$
0+
#3790
1$
1+
#3800
b11110 )
1&
0'
b11110 #
b11110 8
b1011 7
b1011 6
b1011 "
0$
0+
b1011 .
b11110 -
00
1/
#3810
1$
1+
bz 1
bz !
#3820
0&
1'
b1011 :
b1011 9
b1011 (
0$
0+
10
0/
#3830
1$
1+
b1011 1
b1011 !
#3840
b1011 <
b1011 =
0$
0+
#3850
1$
1+
#3860
b11111 )
1&
0'
b11111 #
b11111 8
b1110001 7
b1110001 6
b1110001 "
0$
0+
b1110001 .
b11111 -
00
1/
#3870
1$
1+
bz 1
bz !
#3880
0&
1'
b1110001 :
b1110001 9
b1110001 (
0$
0+
10
0/
#3890
1$
1+
b1110001 1
b1110001 !
#3900
b1110001 <
b1110001 =
0$
0+
#3910
1$
1+
#3920
b100000 )
1%
0$
0+
1,
#3930
1$
1+
b11111 2
bz 1
bz !
#3940
0$
0+
#3950
1$
1+
#3960
0%
0'
b0 )
b101 #
1&
b101 8
b1001111 7
b1001111 6
b1001111 "
0$
0+
b1001111 .
1/
b101 -
00
0,
#3970
1$
1+
#3980
0&
1'
b1001111 :
b1001111 9
b1001111 (
0$
0+
10
0/
#3990
1$
1+
b1001111 1
b1001111 !
#4000
b1001111 <
b1001111 =
0$
0+
#4010
1$
1+
#4020
b1 )
b11011 #
1&
0'
b11011 8
b111010 7
b111010 6
b111010 "
0$
0+
b111010 .
00
1/
b11011 -
#4030
1$
1+
bz 1
bz !
#4040
0&
1'
b111010 :
b111010 9
b111010 (
0$
0+
10
0/
#4050
1$
1+
b111010 1
b111010 !
#4060
b111010 <
b111010 =
0$
0+
#4070
1$
1+
#4080
b10 )
b11110 #
1&
0'
b11110 8
b10101 7
b10101 6
b10101 "
0$
0+
b10101 .
00
1/
b11110 -
#4090
1$
1+
bz 1
bz !
#4100
0&
1'
b10101 :
b10101 9
b10101 (
0$
0+
10
0/
#4110
1$
1+
b10101 1
b10101 !
#4120
b10101 <
b10101 =
0$
0+
#4130
1$
1+
#4140
b11 )
b10001 #
1&
0'
b10001 8
b11011001 7
b11011001 6
b11011001 "
0$
0+
b11011001 .
00
1/
b10001 -
#4150
1$
1+
bz 1
bz !
#4160
0&
1'
b11011001 :
b11011001 9
b11011001 (
0$
0+
10
0/
#4170
1$
1+
b11011001 1
b11011001 !
#4180
b11011001 <
b11011001 =
0$
0+
#4190
1$
1+
#4200
b100 )
b10 #
1&
0'
b10 8
b1001100 7
b1001100 6
b1001100 "
0$
0+
b1001100 .
00
1/
b10 -
#4210
1$
1+
bz 1
bz !
#4220
0&
1'
b1001100 :
b1001100 9
b1001100 (
0$
0+
10
0/
#4230
1$
1+
b1001100 1
b1001100 !
#4240
b1001100 <
b1001100 =
0$
0+
#4250
1$
1+
#4260
b101 )
b11111 #
1&
0'
b11111 8
b10001111 7
b10001111 6
b10001111 "
0$
0+
b10001111 .
00
1/
b11111 -
#4270
1$
1+
bz 1
bz !
#4280
0&
1'
b10001111 :
b10001111 9
b10001111 (
0$
0+
10
0/
#4290
1$
1+
b10001111 1
b10001111 !
#4300
b10001111 <
b10001111 =
0$
0+
#4310
1$
1+
#4320
b110 )
b11000 #
1&
0'
b11000 8
b10110111 7
b10110111 6
b10110111 "
0$
0+
b10110111 .
00
1/
b11000 -
#4330
1$
1+
bz 1
bz !
#4340
0&
1'
b10110111 :
b10110111 9
b10110111 (
0$
0+
10
0/
#4350
1$
1+
b10110111 1
b10110111 !
#4360
b10110111 <
b10110111 =
0$
0+
#4370
1$
1+
#4380
b111 )
b11111 #
1&
0'
b11111 8
b1011100 7
b1011100 6
b1011100 "
0$
0+
b1011100 .
00
1/
b11111 -
#4390
1$
1+
bz 1
bz !
#4400
0&
1'
b1011100 :
b1011100 9
b1011100 (
0$
0+
10
0/
#4410
1$
1+
b1011100 1
b1011100 !
#4420
b1011100 <
b1011100 =
0$
0+
#4430
1$
1+
#4440
b1000 )
b11011 #
1&
0'
b11011 8
b10001001 7
b10001001 6
b10001001 "
0$
0+
b10001001 .
00
1/
b11011 -
#4450
1$
1+
bz 1
bz !
#4460
0&
1'
b10001001 :
b10001001 9
b10001001 (
0$
0+
10
0/
#4470
1$
1+
b10001001 1
b10001001 !
#4480
b10001001 <
b10001001 =
0$
0+
#4490
1$
1+
#4500
b1001 )
b1001 #
1&
0'
b1001 8
b11010000 7
b11010000 6
b11010000 "
0$
0+
b11010000 .
00
1/
b1001 -
#4510
1$
1+
bz 1
bz !
#4520
0&
1'
b11010000 :
b11010000 9
b11010000 (
0$
0+
10
0/
#4530
1$
1+
b11010000 1
b11010000 !
#4540
b11010000 <
b11010000 =
0$
0+
#4550
1$
1+
#4560
b1010 )
1%
0$
0+
1,
#4570
1$
1+
b11111 2
bz 1
bz !
#4580
0$
0+
#4590
1$
1+
#4600
0%
1'
b0 )
b0 #
1&
b0 8
b10010110 7
b10010110 6
b10010110 "
0$
0+
b10010110 .
1/
b0 -
0,
#4610
1$
1+
#4620
0&
0'
b10010110 :
b10010110 9
b10010110 (
0$
0+
00
0/
#4630
1$
1+
#4640
b10010110 <
bz =
0$
0+
#4650
1$
1+
#4660
b1 )
b1 #
1'
b1 8
b111101 7
b111101 6
b111101 "
0$
0+
b111101 .
10
b1 -
#4670
1$
1+
#4680
0'
b111101 :
b111101 9
b111101 (
0$
0+
00
#4690
1$
1+
#4700
b111101 <
0$
0+
#4710
1$
1+
#4720
b10 )
b10 #
1&
1'
b10 8
b11111 7
b11111 6
b11111 "
0$
0+
b11111 .
10
1/
b10 -
#4730
1$
1+
#4740
b11111 :
b11111 9
b11111 (
0$
0+
#4750
1$
1+
b11111 1
b11111 !
